{
    "servidorAutenticacion" : {
        "direccionIP" : "localhost",
        "puerto" : 3010,
        "listaEndpoints" : {
            "login" : "/login"
        }
    },
    "servidorVentas" : {
        "direccionIP" : "localhost",
        "puerto" : 1108,
        "listaEndpoints" : {
            "venta" : "/generarTicket"
          }
    },
    "session" : {
        "secret" : "Ym2VW2WRLNn03XilKZG2a7nRBk1Nhhjuqr10"
    },
    "rolBuscar" : "Mesero",
    "listaRutas" : {
        "login" : "/",
        "mesas" : "/mesas",
        "tiempo" : "/tiempo",
        "pagar" : "/pagar",
        "atencion" : "/atencion",
        "menu" : "/menu"
    },
    "estatusError" : {
        "correcto"  : 200,
        "badRequest" : 400,
        "noAutorizado" : 401,
        "notFound" : 404
    },
    "servidorMesas" : {
        "direccionIP" : "localhost",
        "puerto" : 3001,
        "listaEndpoints" : {
            "mesas" : "/mesasAsignadas"
        }
    },
    "servidorComandas" : {
      "direccionIP" : "localhost",
      "puerto" : 5000,
      "listaEndpoints" : {
          "ordenActiva" : "/ordenActiva",
          "realizarOrden" : "/realizarOrden"
        }
    },
    "servidorPlatillos" : {
        "direccionIP" : "localhost",
        "puerto" : 7000,
        "listaEndPoints" : {
            "gruposComida" : "/gruposComida",
            "platillos" : "/platillos"
        }
    }
}