<svg xmlns="http://www.w3.org/2000/svg" width="40" height="40" viewBox="0 0 40 40">
    <path fill="#FFF" fill-rule="evenodd" d="M40 4l-4-4-16 16L4 0 0 4l16 16L0 36l4 4 16-16 16 16 4-4-16-16z"/>
</svg>
