<svg xmlns="http://www.w3.org/2000/svg" width="191" height="203" viewBox="0 0 191 203">
    <path fill="#FFF" fill-rule="evenodd" d="M185.973 193.078h-7.108v-8.986h7.107a4.96 4.96 0 0 0 4.961-4.96c0-27.679-21.236-50.49-48.27-53.002v-8.577a4.96 4.96 0 1 0-9.92 0v8.577c-27.034 2.511-48.27 25.323-48.27 53.001a4.96 4.96 0 0 0 4.96 4.96h7.107v8.987h-7.107a4.96 4.96 0 1 0 0 9.92h11.97c.065.002.13.002.195 0h72.21l.097.002.097-.001h11.971a4.96 4.96 0 1 0 0-9.921zm-17.03 0h-62.482v-8.986h62.483v8.986zM94.677 174.17c2.469-21.553 20.823-38.348 43.026-38.348 22.203 0 40.558 16.795 43.027 38.348H94.676zm-35.412-125.9c-14.576 0-25.994 8.337-25.994 18.982 0 10.644 11.418 18.982 25.994 18.982s25.993-8.338 25.993-18.982c0-10.645-11.417-18.983-25.993-18.983zm0 28.042c-9.472 0-16.073-4.774-16.073-9.06 0-4.286 6.601-9.062 16.073-9.062 9.471 0 16.072 4.776 16.072 9.062 0 4.285-6.6 9.06-16.072 9.06zM70.948 193.08H9.92V34.056h98.686v82.605a4.96 4.96 0 1 0 9.92 0V29.095a4.96 4.96 0 0 0-4.96-4.96h-2.332V4.96a4.962 4.962 0 0 0-5.547-4.926L4.374 12.102A4.96 4.96 0 0 0 0 17.028V198.04A4.96 4.96 0 0 0 4.96 203h65.988a4.96 4.96 0 1 0 0-9.92zM9.92 21.433l91.393-10.886v13.588H9.92v-2.702zM50.91 178.865a4.96 4.96 0 1 1 0-9.921h16.708a4.96 4.96 0 1 1 0 9.921H50.91z"/>
</svg>
